…
Conduct glm in each city and delete "Unknown" victim sex for later modeling

``` r
homicide_tidy %>% 
  filter(victim_sex != "Unknown") %>% 
  group_by(city_state) %>% 
  nest() %>% 
  mutate(model = map(data, ~glm(result ~ victim_age + victim_sex + victim_race, data = .x, family = "binomial"))) %>% 
  mutate(model = map(model, odds_confi)) %>% 
  select(-data) %>% 
  unnest()
```

    ## # A tibble: 188 x 6
    ##    city_state     term                    OR   log_OR conf.low conf.high
    ##    <chr>          <chr>                <dbl>    <dbl>    <dbl>     <dbl>
    ##  1 Albuquerque,NM (Intercept)          3.62   1.29      0.541   2.07    
    ##  2 Albuquerque,NM victim_age           0.976 -0.0244   -0.0390 -0.0106  
    ##  3 Albuquerque,NM victim_sexMale       1.58   0.455    -0.116   1.02    
    ##  4 Albuquerque,NM victim_racenon-white 0.738 -0.304    -0.806   0.191   
    ##  5 Atlanta,GA     (Intercept)          3.17   1.15      0.454   1.87    
    ##  6 Atlanta,GA     victim_age           0.988 -0.0118   -0.0208 -0.00287 
    ##  7 Atlanta,GA     victim_sexMale       0.990 -0.0101   -0.392   0.364   
    ##  8 Atlanta,GA     victim_racenon-white 0.753 -0.284    -0.857   0.262   
    ##  9 Baltimore,MD   (Intercept)          3.27   1.19      0.730   1.65    
    ## 10 Baltimore,MD   victim_age           0.993 -0.00699  -0.0134 -0.000627
    ## # ... with 178 more rows
